Chapter 5 Data Transformation 3: Finetuned Data Manipulation | Introduction to R
…
Here we have only 2 columns to reshape 1999 and 2000. We could have written gather(table4a, year, cases, `1999`, `2000`).

Your turn

Use the gather() function with the student mental health data data_SMH to reshape it from wide format into long format.

Step 1: Only work with a selection of columns from data_SMH to see better what is going on. Create a new object SMH_short that shows only ID, and the 7 subscales of ToAS (APD:AMiscell).

Step 2: use gather() according to the formula above so that the 7 subscales APD:AMiscell of SMH_short are gathered in one column named Subscales and their values in another column Scores. Store results in the Global Environment as SMH_long.

Step 3: arrange() the data SMH_long by the column ID. Store the results as SMH_long. You can either overwrite SMH_long from Step 2 or use a pipe (%>%).

When you are done, SMH_long should look like this.

## # A tibble: 1,876 x 3
##       ID Subscales Scores
##    <dbl> <chr>      <dbl>
##  1     1 APD           23
##  2     1 AHome          9
##  3     1 APH           11
##  4     1 Afear          8
##  5     1 ACS           11
##  6     1 AGuilt         2
##  7     1 AMiscell      27
##  8     2 APD            8
##  9     2 AHome          7
## 10     2 APH            5
## # ... with 1,866 more rows

Solution

SMH_short <- select(data_SMH, ID, APD:AMiscell)
SMH_long <- SMH_short %>% 
  gather(Subscales, Scores, APD:AMiscell) %>% 
  arrange(ID)
SMH_long

## # A tibble: 1,876 x 3
##       ID Subscales Scores
##    <dbl> <chr>      <dbl>
##  1     1 APD           23
##  2     1 AHome          9
##  3     1 APH           11
##  4     1 Afear          8
##  5     1 ACS           11
##  6     1 AGuilt         2
##  7     1 AMiscell      27
##  8     2 APD            8
##  9     2 AHome          7
## 10     2 APH            5
## # ... with 1,866 more rows
…
Voila, cases and population are in their own columns.

Your turn

Let’s pretend that the 7 subscales in SMH_long are actually 7 variables. Use spread() to achieve that. Store your results in the Global Environment as SMH_wide. When you are done, your results should look like this.

## # A tibble: 268 x 8
##       ID   ACS Afear AGuilt AHome AMiscell   APD   APH
##    <dbl> <dbl> <dbl>  <dbl> <dbl>    <dbl> <dbl> <dbl>
##  1     1    11     8      2     9       27    23    11
##  2     2     3     4      2     7       10     8     5
##  3     3     4     6      3     4       14    13     7
##  4     4     6     8      4    10       21    16    10
##  5     5     7     8      4    12       31    15     5
##  6     6     7     8      3     8       29    18    10
##  7     7     3     5      2     6       15    17    10
##  8     8    11    15      6    20       40    16    19
##  9     9    10    13      6    12       33    22    13
## 10    10     3    12      2     4       17     8     5
## # ... with 258 more rows
…
Let’s apply the formula above to our data and store results in the Global Environment as SMH_wide.

We need a dataframe that we want to modify -> SMH_long

We need to decide which of the columns in SMH_long will become the new column headers -> Subscales

We need to decide which of the columns in SMH_long has all the data in it that will become the new cell values -> Scores

SMH_wide <- spread(SMH_long, Subscales, Scores)
SMH_wide

## # A tibble: 268 x 8
##       ID   ACS Afear AGuilt AHome AMiscell   APD   APH
##    <dbl> <dbl> <dbl>  <dbl> <dbl>    <dbl> <dbl> <dbl>
##  1     1    11     8      2     9       27    23    11
##  2     2     3     4      2     7       10     8     5
##  3     3     4     6      3     4       14    13     7
##  4     4     6     8      4    10       21    16    10
##  5     5     7     8      4    12       31    15     5
##  6     6     7     8      3     8       29    18    10
##  7     7     3     5      2     6       15    17    10
##  8     8    11    15      6    20       40    16    19
##  9     9    10    13      6    12       33    22    13
## 10    10     3    12      2     4       17     8     5
## # ... with 258 more rows
…
