Chapter 3 Data Transformation 1: Basic One Table Verbs | Introduction to R
…
3.2.5 Reading in the data

Today, we will be using the following data file Student_Mental_Health.csv. This contains demographic and mental health data for 268 students at an international university in Japan. The full version of this open access dataset and accompanying publication are available at https://www.mdpi.com/2306-5729/4/3/124. There is also a copy of this paper in today’s data folder.

Now, you need to read the .csv file containing your data into your Global Environment using the function read_csv(). Remember to store your data in an appropriately named object (e.g. student_MH).

student_MH <- read_csv("Student_Mental_Health.csv")

3.2.6 View the data

Either click on student_MH in your Global Environment to open your data in a new tab on the Source pane or call the object in your Console (by typing the name of the object student_MH) to check that the data was correctly imported into R.

student_MH

## # A tibble: 268 x 19
##       ID inter_dom Region Gender Academic   Age Stay_Cate Japanese_cate
##    <dbl> <chr>     <chr>  <chr>  <chr>    <dbl> <chr>     <chr>        
##  1     1 Inter     SEA    Male   Grad        24 Long      Average      
##  2     2 Inter     SEA    Male   Grad        28 Short     High         
##  3     3 Inter     SEA    Male   Grad        25 Long      High         
##  4     4 Inter     EA     Female Grad        29 Short     Low          
##  5     5 Inter     EA     Female Grad        28 Short     Low          
##  6     6 Inter     SEA    Male   Grad        24 Long      Average      
##  7     7 Inter     SA     Male   Grad        23 Short     Average      
##  8     8 Inter     SEA    Female Grad        30 Medium    Low          
##  9     9 Inter     SEA    Female Grad        25 Long      High         
## 10    10 Inter     Others Male   Grad        31 Medium    Low          
## # ... with 258 more rows, and 11 more variables: English_cate <chr>,
## #   ToDep <dbl>, ToSC <dbl>, APD <dbl>, AHome <dbl>, APH <dbl>, Afear <dbl>,
## #   ACS <dbl>, AGuilt <dbl>, AMiscell <dbl>, ToAS <dbl>
…
How many rows (or observations) does student_MH have?  
 How many columns (or variables) does student_MH have?  

Take 10 minutes to read the data description section of the Nguyen publication in order to familiarise yourself with the variables in your dataframe.

3.3 select()

You may not want to include every single variable in your analysis. In order to include or exclude certain variables (columns), use the select() function. The first argument to this function is the object you want to select variables from (i.e. our tibble called student_MH), and the subsequent arguments are the variables to keep.

For example, if you wanted to keep all variables except from ID, you could type:

select(student_MH, inter_dom, Region, Gender, Academic, Age, Stay_Cate, Japanese_cate, English_cate, ToDep, ToSC, APD, AHome, APH, Afear, ACS, AGuilt, AMiscell, ToAS)

## # A tibble: 268 x 18
##    inter_dom Region Gender Academic   Age Stay_Cate Japanese_cate English_cate
##    <chr>     <chr>  <chr>  <chr>    <dbl> <chr>     <chr>         <chr>       
##  1 Inter     SEA    Male   Grad        24 Long      Average       High        
##  2 Inter     SEA    Male   Grad        28 Short     High          High        
##  3 Inter     SEA    Male   Grad        25 Long      High          High        
##  4 Inter     EA     Female Grad        29 Short     Low           Average     
##  5 Inter     EA     Female Grad        28 Short     Low           Average     
##  6 Inter     SEA    Male   Grad        24 Long      Average       High        
##  7 Inter     SA     Male   Grad        23 Short     Average       High        
##  8 Inter     SEA    Female Grad        30 Medium    Low           Low         
##  9 Inter     SEA    Female Grad        25 Long      High          High        
## 10 Inter     Others Male   Grad        31 Medium    Low           High        
## # ... with 258 more rows, and 10 more variables: ToDep <dbl>, ToSC <dbl>,
## #   APD <dbl>, AHome <dbl>, APH <dbl>, Afear <dbl>, ACS <dbl>, AGuilt <dbl>,
## #   AMiscell <dbl>, ToAS <dbl>

Uuuuiiii. That was long and it would have taken us loads of time typing it out. There are two ways on how we could have done this easier and faster:

We could use the colon operator :. Similar to last week where we used the colon operator for numerical sequences, we can use it here for selecting a sequence of column names. Here, it reads as “take object student_HM, and select columns inter_dom, ToAS, and everything in between”.

select(student_MH, inter_dom:ToAS)

## # A tibble: 268 x 18
##    inter_dom Region Gender Academic   Age Stay_Cate Japanese_cate English_cate
##    <chr>     <chr>  <chr>  <chr>    <dbl> <chr>     <chr>         <chr>       
##  1 Inter     SEA    Male   Grad        24 Long      Average       High        
##  2 Inter     SEA    Male   Grad        28 Short     High          High        
##  3 Inter     SEA    Male   Grad        25 Long      High          High        
##  4 Inter     EA     Female Grad        29 Short     Low           Average     
##  5 Inter     EA     Female Grad        28 Short     Low           Average     
##  6 Inter     SEA    Male   Grad        24 Long      Average       High        
##  7 Inter     SA     Male   Grad        23 Short     Average       High        
##  8 Inter     SEA    Female Grad        30 Medium    Low           Low         
##  9 Inter     SEA    Female Grad        25 Long      High          High        
## 10 Inter     Others Male   Grad        31 Medium    Low           High        
## # ... with 258 more rows, and 10 more variables: ToDep <dbl>, ToSC <dbl>,
## #   APD <dbl>, AHome <dbl>, APH <dbl>, Afear <dbl>, ACS <dbl>, AGuilt <dbl>,
## #   AMiscell <dbl>, ToAS <dbl>

We could use “negative selection”, i.e. select the variable we wanted to drop by adding a minus in front of it.

select(student_MH, -ID)

## # A tibble: 268 x 18
##    inter_dom Region Gender Academic   Age Stay_Cate Japanese_cate English_cate
##    <chr>     <chr>  <chr>  <chr>    <dbl> <chr>     <chr>         <chr>       
##  1 Inter     SEA    Male   Grad        24 Long      Average       High        
##  2 Inter     SEA    Male   Grad        28 Short     High          High        
##  3 Inter     SEA    Male   Grad        25 Long      High          High        
##  4 Inter     EA     Female Grad        29 Short     Low           Average     
##  5 Inter     EA     Female Grad        28 Short     Low           Average     
##  6 Inter     SEA    Male   Grad        24 Long      Average       High        
##  7 Inter     SA     Male   Grad        23 Short     Average       High        
##  8 Inter     SEA    Female Grad        30 Medium    Low           Low         
##  9 Inter     SEA    Female Grad        25 Long      High          High        
## 10 Inter     Others Male   Grad        31 Medium    Low           High        
## # ... with 258 more rows, and 10 more variables: ToDep <dbl>, ToSC <dbl>,
## #   APD <dbl>, AHome <dbl>, APH <dbl>, Afear <dbl>, ACS <dbl>, AGuilt <dbl>,
## #   AMiscell <dbl>, ToAS <dbl>

We also have the option of “de-selecting” more than one variable. Let’s say, we had no interest in any of the seven subscales for ToAS, we could exclude them by combining the colon operator : with the minus. Watch out that you include the minus in front of both reference columns.

select(student_MH, -APD:-AMiscell)

## # A tibble: 268 x 12
##       ID inter_dom Region Gender Academic   Age Stay_Cate Japanese_cate
##    <dbl> <chr>     <chr>  <chr>  <chr>    <dbl> <chr>     <chr>        
##  1     1 Inter     SEA    Male   Grad        24 Long      Average      
##  2     2 Inter     SEA    Male   Grad        28 Short     High         
##  3     3 Inter     SEA    Male   Grad        25 Long      High         
##  4     4 Inter     EA     Female Grad        29 Short     Low          
##  5     5 Inter     EA     Female Grad        28 Short     Low          
##  6     6 Inter     SEA    Male   Grad        24 Long      Average      
##  7     7 Inter     SA     Male   Grad        23 Short     Average      
##  8     8 Inter     SEA    Female Grad        30 Medium    Low          
##  9     9 Inter     SEA    Female Grad        25 Long      High         
## 10    10 Inter     Others Male   Grad        31 Medium    Low          
## # ... with 258 more rows, and 4 more variables: English_cate <chr>,
## #   ToDep <dbl>, ToSC <dbl>, ToAS <dbl>

This only works, because they are all next to each other in the tibble. If we wanted to exclude columns ID, Academic, and ToAS that are not neighbouring each other, we would need to list the arguments separately, and insert a minus before each variable name.

select(student_MH, -ID, -Academic, -ToAS)

## # A tibble: 268 x 16
##    inter_dom Region Gender   Age Stay_Cate Japanese_cate English_cate ToDep
##    <chr>     <chr>  <chr>  <dbl> <chr>     <chr>         <chr>        <dbl>
##  1 Inter     SEA    Male      24 Long      Average       High             0
##  2 Inter     SEA    Male      28 Short     High          High             2
##  3 Inter     SEA    Male      25 Long      High          High             2
##  4 Inter     EA     Female    29 Short     Low           Average          3
##  5 Inter     EA     Female    28 Short     Low           Average          3
##  6 Inter     SEA    Male      24 Long      Average       High             6
##  7 Inter     SA     Male      23 Short     Average       High             3
##  8 Inter     SEA    Female    30 Medium    Low           Low              9
##  9 Inter     SEA    Female    25 Long      High          High             7
## 10 Inter     Others Male      31 Medium    Low           High             3
## # ... with 258 more rows, and 8 more variables: ToSC <dbl>, APD <dbl>,
## #   AHome <dbl>, APH <dbl>, Afear <dbl>, ACS <dbl>, AGuilt <dbl>,
## #   AMiscell <dbl>
…
You could also reference the position of column, rather than the actual name.

select(student_MH,1,2,4:6,10:19)

While it works code-wise, and seems a much quicker approach, it is a very bad idea in the name of reproducibility. If you send your code to a fellow researcher, they would have no idea what the code does. Moreover, if at some point, you need to add another column to your data, and/or decide to reorder the sequence of your columns, your code would not run anymore the way you expect it to.

3.4 arrange()

The arrange() function can reorder observations (rows) in ascending (default) or descending order. The first argument to this function is again an object (in this case the tibble short_MH we created in the previous section), and the subsequent arguments are the variables (columns) you want to sort by. For example, if you wanted to sort by Gender in ascending order (which is the default in arrange()) you would type:

short_MH <- arrange(short_MH, Gender)
short_MH

## # A tibble: 268 x 15
##       ID inter_dom Gender Academic   Age ToDep  ToSC   APD AHome   APH Afear
##    <dbl> <chr>     <chr>  <chr>    <dbl> <dbl> <dbl> <dbl> <dbl> <dbl> <dbl>
##  1     4 Inter     Female Grad        29     3    37    16    10    10     8
##  2     5 Inter     Female Grad        28     3    37    15    12     5     8
##  3     8 Inter     Female Grad        30     9    41    16    20    19    15
##  4     9 Inter     Female Grad        25     7    36    22    12    13    13
##  5    11 Inter     Female Grad        28     5    32    24     8    10     8
##  6    12 Inter     Female Grad        31     8    47    17    12    14    13
##  7    15 Inter     Female Grad        31     9    31    23    16    15     8
##  8    16 Inter     Female Grad        30     6    40    19     9     5     4
##  9    17 Inter     Female Grad        31     3    48    11    13     7     4
## 10    18 Inter     Female Grad        29     3    48    16     4     5     4
## # ... with 258 more rows, and 4 more variables: ACS <dbl>, AGuilt <dbl>,
## #   AMiscell <dbl>, ToAS <dbl>

Since you have assigned this code to the same object as before (i.e. short_MH), the previous version of short_MH is overwritten.

Notice how the Gender column is now organised in alphabetical order i.e. females followed by males. Suppose you wanted to reverse this order, displaying males before females, you would need to wrap the name of the variable in the desc() function (i.e. for descending).

short_MH <- arrange(short_MH, desc(Gender))
short_MH

## # A tibble: 268 x 15
##       ID inter_dom Gender Academic   Age ToDep  ToSC   APD AHome   APH Afear
##    <dbl> <chr>     <chr>  <chr>    <dbl> <dbl> <dbl> <dbl> <dbl> <dbl> <dbl>
##  1     1 Inter     Male   Grad        24     0    34    23     9    11     8
##  2     2 Inter     Male   Grad        28     2    48     8     7     5     4
##  3     3 Inter     Male   Grad        25     2    41    13     4     7     6
##  4     6 Inter     Male   Grad        24     6    38    18     8    10     8
##  5     7 Inter     Male   Grad        23     3    46    17     6    10     5
##  6    10 Inter     Male   Grad        31     3    48     8     4     5    12
##  7    13 Inter     Male   Grad        29     1    48     8    11     5     4
##  8    14 Inter     Male   Grad        23     3    32     9     8     5     4
##  9    20 Inter     Male   Under       25     1    36    13    10     7     5
## 10    21 Inter     Male   Under       18     4    26    18     4     7     4
## # ... with 258 more rows, and 4 more variables: ACS <dbl>, AGuilt <dbl>,
## #   AMiscell <dbl>, ToAS <dbl>
…
